[
  { "id": 1, "name": "HUND", "image": "dog.jpg", "audio": "HUND.mp3" },
  { "id": 2, "name": "KATZE", "image": "cat.jpg", "audio": "KATZE.mp3" },
  { "id": 3, "name": "VOGEL", "image": "bird.jpg", "audio": "VOGEL.mp3" },
  { "id": 4, "name": "FISCH", "image": "fish.jpg", "audio": "FISCH.mp3" },
  { "id": 5, "name": "HUHN", "image": "chicken.jpg", "audio": "HUHN.mp3" },
  { "id": 6, "name": "ENTE", "image": "duck.jpg", "audio": "ENTE.mp3" },
  { "id": 7, "name": "KANINCHEN", "image": "rabbit.jpg", "audio": "KANINCHEN.mp3" },
  { "id": 8, "name": "ZIEGE", "image": "goat.jpg", "audio": "ZIEGE.mp3" },
  { "id": 9, "name": "SCHAF", "image": "sheep.jpg", "audio": "SCHAF.mp3" },
  { "id": 10, "name": "ESEL", "image": "donkey.jpg", "audio": "ESEL.mp3" },
  { "id": 11, "name": "PFERD", "image": "horse.jpg", "audio": "PFERD.mp3" },
  { "id": 12, "name": "KUH", "image": "cow.jpg", "audio": "KUH.mp3" },
  { "id": 13, "name": "STIER", "image": "bull.jpg", "audio": "STIER.mp3" },
  { "id": 14, "name": "SCHWEIN", "image": "pig.jpg", "audio": "SCHWEIN.mp3" },
  { "id": 15, "name": "MAUS", "image": "mouse.jpg", "audio": "MAUS.mp3" },
  { "id": 16, "name": "BIENE", "image": "bee.jpg", "audio": "BIENE.mp3" },
  { "id": 17, "name": "SCHMETTERLING", "image": "butterfly.jpg", "audio": "SCHMETTERLING.mp3" },
  { "id": 18, "name": "MARIENKÄFER", "image": "ladybird.jpg", "audio": "MARIENKAFER.mp3" },
  { "id": 19, "name": "AMEISE", "image": "ant.jpg", "audio": "AMEISE.mp3" },
  { "id": 20, "name": "SCHNECKE", "image": "snail.jpg", "audio": "SCHNECKE.mp3" },
  { "id": 21, "name": "FLIEGE", "image": "fly.jpg", "audio": "FLIEGE.mp3" },
  { "id": 22, "name": "TAUBE", "image": "pigeon.jpg", "audio": "TAUBE.mp3" },
  { "id": 23, "name": "FROSCH", "image": "frog.jpg", "audio": "FROSCH.mp3" },
  { "id": 24, "name": "SCHILDKROTE", "image": "tortoise.jpg", "audio": "SCHILDKROTE.mp3" }
]
